Pakistan Tehsil data from Pakistan Population Census 2017 — PakPC2017Tehsil • PakPC2017
…
PakPC2017Tehsil %>%
  group_by(Province, Division, District) %>%
  summarise(
    Pop1998 = sum(Pop1998, na.rm = TRUE)
  , Pop2017 = sum(Pop2017, na.rm = TRUE))
#> # A tibble: 129 x 5
#> # Groups:   Province, Division [?]
#>    Province    Division District Pop1998 Pop2017
#>    <chr>       <chr>    <chr>      <dbl>   <dbl>
#>  1 Balochistan Kalat    Awaran    118173  121680
#>  2 Balochistan Kalat    Kalat     237834  412232
#>  3 Balochistan Kalat    Kharan     96900  156152
#>  4 Balochistan Kalat    Khuzdar   417466  802207
#>  5 Balochistan Kalat    Lasbela   312695  574292
#>  6 Balochistan Kalat    Mastung   150650  266461
#>  7 Balochistan Kalat    Washuk    110009  176206
#>  8 Balochistan Mekran   Gwadar    185498  263514
#>  9 Balochistan Mekran   Kech      413204  909116
#> 10 Balochistan Mekran   Panjgur   234051  316385
#> # ... with 119 more rows
…
