Pakistan Population data from Pakistan Population Census 2017 — PakPop2017 • PakPC2017
…
    Examples

library(PakPC2017)
library(dplyr)
library(magrittr)
data("PakPop2017")

PakPop2017 %>%
  group_by(Province, Division, District) %>%
  summarise(Pop2017 = sum(Pop2017, na.rm = TRUE))
#> # A tibble: 156 x 4
#> # Groups:   Province, Division [?]
#>    Province               Division             District              Pop2017
#>    <chr>                  <chr>                <chr>                   <int>
#>  1 AZAD JAMMU AND KASHMIR MIRPUR DIVISION      BHIMBER DISTRICT       420624
#>  2 AZAD JAMMU AND KASHMIR MIRPUR DIVISION      KOTLI DISTRICT         774194
#>  3 AZAD JAMMU AND KASHMIR MIRPUR DIVISION      MIRPUR DISTRICT        456200
#>  4 AZAD JAMMU AND KASHMIR MUZAFARABAD DIVISION HATTIAN BALA DISTRICT  230529
#>  5 AZAD JAMMU AND KASHMIR MUZAFARABAD DIVISION MUZAFFARABAD DISTRICT  650371
#>  6 AZAD JAMMU AND KASHMIR MUZAFARABAD DIVISION NEELUM DISTRICT        191251
#>  7 AZAD JAMMU AND KASHMIR RAWALAKOT DIVISION   BAGH DISTRICT          371919
#>  8 AZAD JAMMU AND KASHMIR RAWALAKOT DIVISION   HAVELI DISTRICT        152124
#>  9 AZAD JAMMU AND KASHMIR RAWALAKOT DIVISION   POONCH DISTRICT        500571
#> 10 AZAD JAMMU AND KASHMIR RAWALAKOT DIVISION   SUDHNOTI DISTRICT      297584
#> # ... with 146 more rows

 PakPop2017 %>%
  filter(District == "FAISALABAD DISTRICT")
#> # A tibble: 5,949 x 10
#>    Province Division   District   Tehsil    QanungoHalqa PatwarCircle Village  
#>    <chr>    <chr>      <chr>      <chr>     <chr>        <chr>        <chr>    
#>  1 PUNJAB   FAISALABA… FAISALABA… FAISALAB… FAISALABAD … 217/R.B. PC  CHAK 217…
#>  2 PUNJAB   FAISALABA… FAISALABA… FAISALAB… FAISALABAD … 217/R.B. PC  CHAK 217…
#>  3 PUNJAB   FAISALABA… FAISALABA… FAISALAB… FAISALABAD … 217/R.B. PC  CHAK 217…
#>  4 PUNJAB   FAISALABA… FAISALABA… FAISALAB… FAISALABAD … 217/R.B. PC  CHAK 217…
#>  5 PUNJAB   FAISALABA… FAISALABA… FAISALAB… FAISALABAD … 217/R.B. PC  CHAK 217…
#>  6 PUNJAB   FAISALABA… FAISALABA… FAISALAB… FAISALABAD … 217/R.B. PC  CHAK 217…
#>  7 PUNJAB   FAISALABA… FAISALABA… FAISALAB… FAISALABAD … 217/R.B. PC  CHAK 217…
#>  8 PUNJAB   FAISALABA… FAISALABA… FAISALAB… FAISALABAD … 217/R.B. PC  CHAK 217…
#>  9 PUNJAB   FAISALABA… FAISALABA… FAISALAB… FAISALABAD … 217/R.B. PC  CHAK 217…
#> 10 PUNJAB   FAISALABA… FAISALABA… FAISALAB… FAISALABAD … 217/R.B. PC  CHAK 217…
#> # ... with 5,939 more rows, and 3 more variables: BlockCode <chr>,
#> #   Pop2017 <int>, HH2017 <int>
…
